[gd_scene load_steps=4 format=2]

[ext_resource path="res://scripts/Obstacle.gd" type="Script" id=1]
[ext_resource path="res://assets/graph_asset/SPR_plateforme.png" type="Texture" id=2]

[sub_resource type="RectangleShape2D" id=1]

custom_solver_bias = 0.0
extents = Vector2( 211.821, 49.423 )

[node name="Obstacle_Area2D" type="Area2D"]

input_pickable = true
gravity_vec = Vector2( 0, 1 )
gravity = 98.0
linear_damp = 0.1
angular_damp = 1.0
audio_bus_override = false
audio_bus_name = "Master"
script = ExtResource( 1 )
_sections_unfolded = [ "Transform" ]
Speed = 100

[node name="Sprite" type="Sprite" parent="." index="0"]

position = Vector2( -15.9606, -135.051 )
texture = ExtResource( 2 )
_sections_unfolded = [ "Transform" ]

[node name="CollisionShape2D2" type="CollisionShape2D" parent="." index="1"]

position = Vector2( -15.9606, -49.5276 )
shape = SubResource( 1 )

[node name="StaticBody2D" type="StaticBody2D" parent="." index="2"]

input_pickable = false
collision_layer = 1
collision_mask = 1
constant_linear_velocity = Vector2( 0, 0 )
constant_angular_velocity = 0.0
friction = 1.0
bounce = 0.0

[node name="CollisionShape2D" type="CollisionShape2D" parent="StaticBody2D" index="0"]

position = Vector2( -15.9606, -49.5276 )
shape = SubResource( 1 )

[connection signal="area_entered" from="." to="." method="_on_Obstacle_Area2D_area_entered"]


