[gd_scene load_steps=3 format=2]

[ext_resource path="res://reglage_volume_musique.gd" type="Script" id=1]
[ext_resource path="res://assets/sounds/Interface/Commande ouvert.ogg" type="AudioStream" id=2]

[node name="reglage_volume_musique" type="Node2D"]

script = ExtResource( 1 )

[node name="limite_volume" type="AudioStreamPlayer" parent="." index="0"]

stream = ExtResource( 2 )
volume_db = 0.0
pitch_scale = 1.0
autoplay = false
mix_target = 0
bus = "eclairs"


