[gd_scene load_steps=4 format=2]

[ext_resource path="res://scripts/plateforme_longue_DETAIL_StaticBody2D.gd" type="Script" id=1]
[ext_resource path="res://assets/graph_asset/SPR_goal.png" type="Texture" id=2]

[sub_resource type="RectangleShape2D" id=1]

custom_solver_bias = 0.0
extents = Vector2( 139.893, 10.6954 )

[node name="pontonDrapeau" type="Area2D" groups=[
"pour_bruit_choc",
]]

position = Vector2( -3.7207, -135.64 )
input_pickable = true
gravity_vec = Vector2( 0, 1 )
gravity = 98.0
linear_damp = 0.1
angular_damp = 1.0
audio_bus_override = false
audio_bus_name = "Master"
script = ExtResource( 1 )
Speed = 100

[node name="CollisionPolygon2D" type="CollisionPolygon2D" parent="." index="0"]

position = Vector2( 3.57628e-06, -31.0249 )
build_mode = 1
polygon = PoolVector2Array( 214.45, 135.95, 180.25, 66.6001, 158.4, 43.8001, 158.4, 32.4001, 146.05, 27.6501, 153.65, 4.85008, 142.25, 15.3001, 132.75, 13.4001, 132.75, 2.95007, 127.05, 9.60008, 120.4, -1.79993, 109.95, -1.79993, 111.85, -30.2999, 121.35, -24.5999, 126.1, -29.3499, 127.05, -44.5499, 113.75, -55.95, 106.15, -51.2, 33.9502, -106.3, 42.5002, -122.45, 37.7502, -127.2, 29.2002, -117.7, 15.9001, -129.1, 10.2002, -121.5, 19.7002, -111.05, 7.35016, -82.55, -5.94986, -100.6, -4.04987, -109.15, -9.74985, -116.75, -13.5499, -109.15, -13.5499, -93.95, -2.14984, -80.65, -10.6999, -75.9, -3.09985, -66.3999, -11.6499, -48.3499, -18.2999, -47.3999, -21.1499, -36.9499, -29.6999, -35.0499, -26.8499, -24.5999, -27.4531, -15.924, -18.6506, -5.26831, -18.1873, 8.63042, -33.0126, 0.291183, -30.6961, 13.2633, -54.7873, 4.9241, -45.5215, 19.2861, -36.2556, 36.4279, -96.4835, 35.9646, -97.0668, 29.3124, -104.989, 30.6328, -105.749, 35.038, -192.581, 36.636, -340.464, 37.9564, -345.746, 26.5131, -354.108, 27.3933, -351.467, 38.3965, -366.432, 40.157, -361.15, 55.1213, -346.186, 55.5614, -320.658, 136.545 )

[node name="Sprite" type="Sprite" parent="." index="1"]

position = Vector2( -73.6643, -65.4015 )
texture = ExtResource( 2 )

[node name="StaticBody2D" type="StaticBody2D" parent="." index="2"]

input_pickable = false
collision_layer = 1
collision_mask = 1
constant_linear_velocity = Vector2( 0, 0 )
constant_angular_velocity = 0.0
friction = 1.0
bounce = 0.0

[node name="CollisionPolygon2D2" type="CollisionPolygon2D" parent="StaticBody2D" index="0"]

position = Vector2( 3.57628e-06, -31.0249 )
build_mode = 1
polygon = PoolVector2Array( 214.45, 135.95, 180.25, 66.6001, 158.4, 43.8001, 158.4, 32.4001, 146.05, 27.6501, 153.65, 4.85008, 142.25, 15.3001, 132.75, 13.4001, 132.75, 2.95007, 127.05, 9.60008, 120.4, -1.79993, 109.95, -1.79993, 111.85, -30.2999, 121.35, -24.5999, 126.1, -29.3499, 127.05, -44.5499, 113.75, -55.95, 106.15, -51.2, 33.9502, -106.3, 42.5002, -122.45, 37.7502, -127.2, 29.2002, -117.7, 15.9001, -129.1, 10.2002, -121.5, 19.7002, -111.05, 7.35016, -82.55, -5.94986, -100.6, -4.04987, -109.15, -9.74985, -116.75, -13.5499, -109.15, -13.5499, -93.95, -2.14984, -80.65, -10.6999, -75.9, -3.09985, -66.3999, -11.6499, -48.3499, -18.2999, -47.3999, -21.1499, -36.9499, -29.6999, -35.0499, -26.8499, -24.5999, -27.4531, -15.924, -18.6506, -5.26831, -18.1873, 8.63042, -33.0126, 0.291183, -30.6961, 13.2633, -54.7873, 4.9241, -45.5215, 19.2861, -36.2556, 36.4279, -96.4835, 35.9646, -97.0668, 29.3124, -104.989, 30.6328, -105.749, 35.038, -192.581, 36.636, -340.464, 37.9564, -345.746, 26.5131, -354.108, 27.3933, -351.467, 38.3965, -366.432, 40.157, -361.15, 55.1213, -346.186, 55.5614, -320.658, 136.545 )

[node name="pisteAterrissage" type="Area2D" parent="." index="3"]

position = Vector2( -198.363, -5.97078 )
input_pickable = true
gravity_vec = Vector2( 0, 1 )
gravity = 98.0
linear_damp = 0.1
angular_damp = 1.0
audio_bus_override = false
audio_bus_name = "Master"

[node name="CollisionShape2D" type="CollisionShape2D" parent="pisteAterrissage" index="0"]

position = Vector2( 1.32684, 16.5855 )
shape = SubResource( 1 )

[connection signal="body_entered" from="pisteAterrissage" to="." method="_on_pisteAterrissage_body_entered"]


